%YAML 1.1
%TAG !u! tag:unity3d.com,2011:
--- !u!21 &2100000
Material:
  serializedVersion: 6
  m_ObjectHideFlags: 0
  m_CorrespondingSourceObject: {fileID: 0}
  m_PrefabInstance: {fileID: 0}
  m_PrefabAsset: {fileID: 0}
  m_Name: TriplanerMat
  m_Shader: {fileID: -6465566751694194690, guid: 5eeb0039c531dc04e806be2769b32eee,
    type: 3}
  m_ShaderKeywords: 
  m_LightmapFlags: 4
  m_EnableInstancingVariants: 0
  m_DoubleSidedGI: 0
  m_CustomRenderQueue: -1
  stringTagMap: {}
  disabledShaderPasses: []
  m_SavedProperties:
    serializedVersion: 3
    m_TexEnvs:
    - Texture2D_D608C682:
        m_Texture: {fileID: 2800000, guid: 788eee7e0c3747a43863c305b03d90aa, type: 3}
        m_Scale: {x: 1, y: 1}
        m_Offset: {x: 0, y: 0}
    m_Floats:
    - Vector1_1D0FB7F1: 1.45
    - Vector1_7501AA9E: 0
    - Vector1_A6CE43D6: 0
    m_Colors:
    - Color_E68CCA1A: {r: 1, g: 1, b: 1, a: 0}
    - Vector2_D3240EF7: {r: 0.5, g: 0.8, b: 0, a: 0}
